{
	"mainMenu": [
		"Play",
		"Options",
		"Credits",
		"Exit"
	],

	"songList": [
	
	],

	"pauseMenu": [
		"Resume Game",
		"Retry",
		"Options",
		"Return to Song List"
	],
	
	"optionsMenu": [
		"Volume",
		"Resolution",
		"Graphics",
		"Language",
		"Manual",
		"Back",
		"English"
	],

	"stadisticSong": [
		"Retry",
		"Back"
	]
}