﻿# Tiled2Unity generated file. Do not modify by hand.
# Wavefront file for 'Mapfile_mesh_0027.obj'

# Vertices (Count = 28)
v -59.4 -23.4 0
v -61.2 -23.4 0
v -61.2 -21.6 0
v -59.4 -21.6 0
v -54 -23.4 0
v -55.8 -23.4 0
v -55.8 -21.6 0
v -54 -21.6 0
v -43.2 -23.4 0
v -45 -23.4 0
v -45 -21.6 0
v -43.2 -21.6 0
v -41.4 -23.4 0
v -43.2 -23.4 0
v -43.2 -21.6 0
v -41.4 -21.6 0
v -18 -23.4 0
v -19.8 -23.4 0
v -19.8 -21.6 0
v -18 -21.6 0
v -5.4 -23.4 0
v -7.2 -23.4 0
v -7.2 -21.6 0
v -5.4 -21.6 0
v 0 -23.4 0
v -1.8 -23.4 0
v -1.8 -21.6 0
v 0 -21.6 0

# Texture cooridinates (Count = 4)
vt 0.3333333 0
vt 0.6666667 0
vt 0.6666667 1
vt 0.3333333 1

# Normal
vn 0 0 -1

# Mesh description
g Mapfile_mesh_0027

# Faces
f 1/1/1 2/2/1 3/3/1 4/4/1
f 5/1/1 6/2/1 7/3/1 8/4/1
f 9/1/1 10/2/1 11/3/1 12/4/1
f 13/1/1 14/2/1 15/3/1 16/4/1
f 17/1/1 18/2/1 19/3/1 20/4/1
f 21/1/1 22/2/1 23/3/1 24/4/1
f 25/1/1 26/2/1 27/3/1 28/4/1

